<?xml version="1.0" encoding="utf-8"?>
<svg version="1.1" id="Calque_1" xmlns="http://www.w3.org/2000/svg" xmlns:xlink="http://www.w3.org/1999/xlink" x="0px" y="0px"
	 viewBox="0 0 1600 200" style="enable-background:new 0 0 1600 200;" xml:space="preserve">
<style type="text/css">
	.st0{fill-rule:evenodd;clip-rule:evenodd;fill:url(#SVGID_1_);}
</style>
<g id="surface1">

		<linearGradient id="SVGID_1_" gradientUnits="userSpaceOnUse" x1="658.9113" y1="433.3599" x2="658.9113" y2="431.3671" gradientTransform="matrix(-1600 0 0 -200 1055058 86667.3438)">
		<stop  offset="0" style="stop-color:#FFFFFF;stop-opacity:0"/>
		<stop  offset="1" style="stop-color:#FFFFFF;stop-opacity:1"/>
	</linearGradient>
	<path class="st0" d="M1600,114.5c-311,0-409.9-79.9-811-79.8c-400,0-500,79.8-789,79.8v50.8h1600C1600,165.3,1600,133.6,1600,114.5
		z"/>
</g>
</svg>
